{
  "pdf": {
    "waitLifecycleEvent": "DOMContentLoaded",
    "landscape": true,
    "printBackground": true,
    "Scale": 2.0,
    "paperWidth": 20.0,
    "paperHeight": 20.0,
    "marginTop": 2.0,
    "marginBottom": 2.0,
    "marginLeft": 2.0,
    "marginRight": 2.0,
    "preferCSSPageSize": true
  }
}
